Liabilities - Interest Rate PV01;Total (EUR);Actives (EUR thou);Pensioners/Deferreds             (EUR)
5YR KR;256,000;41,000;215,000
10YR KR;365,000;104,000;261,000
15YR KR;438,000;181,000;257,000
20YR KR;444,000;252,000;192,000
25YR KR;401,000;296,000;105,000
30YR KR;335,000;292,000;43,000
35YR KR;267,000;251,000;16,000
40YR KR;200,000;194,000;6,000
45YR KR;142,000;139,000;3,000
50YR KR;179,000;177,000;2,000
TOTAL;3,027,000;1,927,000;1,100,000
