Assets - Inflation KR;Total (EUR);Assets - Rates KR;Total (EUR)
5YR KR;200,000;5YR KR;256,000
10YR KR;280,000;10YR KR;365,000
15YR KR;345,000;15YR KR;438,000
20YR KR;357,000;20YR KR;444,000
25YR KR;329,000;25YR KR;401,000
30YR KR;279,000;30YR KR;335,000
35YR KR;224,000;35YR KR;267,000
40YR KR;170,000;40YR KR;200,000
45YR KR;122,000;45YR KR;142,000
50YR KR;156,000;50YR KR;179,000
TOTAL;2,462,000;TOTAL;3,027,000
